…
``` r
end_games |>
  mutate(diff = win_score - lose_score) |>
  filter(diff >= 3) |>
  count(win_team) |>
  arrange(desc(n)) |>
  rename(`Team` = win_team,
         `Wins by 3+` = n)
```

    ## # A tibble: 30 × 2
    ##    Team                `Wins by 3+`
    ##    <chr>                      <int>
    ##  1 Los Angeles Dodgers           64
    ##  2 Tampa Bay Rays                60
    ##  3 Atlanta Braves                57
    ##  4 Texas Rangers                 57
    ##  5 San Diego Padres              50
    ##  6 Baltimore Orioles             49
    ##  7 Chicago Cubs                  49
    ##  8 Houston Astros                48
    ##  9 Toronto Blue Jays             48
    ## 10 Boston Red Sox                44
    ## # ℹ 20 more rows
…
reg23 |>
  filter(total_score <= 6) |>
  count(win_team) |>
  rename(team = win_team, wins = n) |>
  inner_join(reg23 |>
  filter(total_score <= 6) |>
  count(lose_team) |>
  rename(team = lose_team, losses = n), by = "team") |>
  mutate(win_pct = round(wins / (wins + losses), 3)) |>
  arrange(desc(win_pct))
```

    ## # A tibble: 30 × 4
    ##    team                  wins losses win_pct
    ##    <chr>                <int>  <int>   <dbl>
    ##  1 Los Angeles Dodgers     24      8   0.75 
    ##  2 Atlanta Braves          24      9   0.727
    ##  3 Arizona Diamondbacks    24     14   0.632
    ##  4 Baltimore Orioles       25     15   0.625
    ##  5 Toronto Blue Jays       28     18   0.609
    ##  6 Seattle Mariners        28     19   0.596
    ##  7 Los Angeles Angels      24     18   0.571
    ##  8 Pittsburgh Pirates      26     20   0.565
    ##  9 Texas Rangers           19     15   0.559
    ## 10 Chicago Cubs            24     19   0.558
    ## # ℹ 20 more rows
